[
    {
        "id": "3ed5fce2.15e7a4",
        "type": "modbus-flex-getter",
        "z": "ad059bfc.a2f098",
        "name": "Modbus Get",
        "showStatusActivities": false,
        "showErrors": false,
        "logIOActivities": false,
        "server": "b7312c82.e12fe",
        "useIOFile": false,
        "ioFile": "",
        "useIOForPayload": false,
        "x": 210,
        "y": 240,
        "wires": [
            [
                "b93b8123.56d33"
            ],
            [
                "47b46c54.72c614"
            ]
        ]
    },
    {
        "id": "50bc9ad7.7a2d74",
        "type": "function",
        "z": "ad059bfc.a2f098",
        "name": "FC3 0x9000 [15]",
        "func": "msg.payload = { \n    'fc': 3, \n    'unitid': 1, \n    'address': 0x9000, \n    'quantity': 15\n}\nreturn msg;",
        "outputs": 1,
        "noerr": 0,
        "initialize": "",
        "finalize": "",
        "libs": [],
        "x": 130,
        "y": 140,
        "wires": [
            [
                "3ed5fce2.15e7a4"
            ]
        ]
    },
    {
        "id": "47b46c54.72c614",
        "type": "modbus-response",
        "z": "ad059bfc.a2f098",
        "name": "0x9000 Response",
        "registerShowMax": 20,
        "x": 290,
        "y": 320,
        "wires": []
    },
    {
        "id": "624a3ceb.2339b4",
        "type": "switch",
        "z": "ad059bfc.a2f098",
        "name": "",
        "property": "parts.index",
        "propertyType": "msg",
        "rules": [
            {
                "t": "eq",
                "v": "0",
                "vt": "num"
            },
            {
                "t": "eq",
                "v": "1",
                "vt": "num"
            },
            {
                "t": "eq",
                "v": "2",
                "vt": "num"
            },
            {
                "t": "eq",
                "v": "3",
                "vt": "str"
            },
            {
                "t": "eq",
                "v": "4",
                "vt": "str"
            },
            {
                "t": "eq",
                "v": "5",
                "vt": "str"
            },
            {
                "t": "eq",
                "v": "6",
                "vt": "str"
            },
            {
                "t": "eq",
                "v": "7",
                "vt": "str"
            },
            {
                "t": "eq",
                "v": "8",
                "vt": "str"
            },
            {
                "t": "eq",
                "v": "9",
                "vt": "str"
            },
            {
                "t": "eq",
                "v": "10",
                "vt": "str"
            },
            {
                "t": "eq",
                "v": "11",
                "vt": "str"
            },
            {
                "t": "eq",
                "v": "12",
                "vt": "str"
            },
            {
                "t": "eq",
                "v": "13",
                "vt": "str"
            },
            {
                "t": "eq",
                "v": "14",
                "vt": "str"
            }
        ],
        "checkall": "false",
        "repair": false,
        "outputs": 15,
        "x": 630,
        "y": 280,
        "wires": [
            [
                "54438fef.e2507"
            ],
            [
                "36997d58.3762a2"
            ],
            [
                "7157095b.b6a698"
            ],
            [
                "4af9aede.c4df5"
            ],
            [
                "ea98d014.4b279"
            ],
            [
                "a91daaeb.6379b8"
            ],
            [
                "2dd12075.1f64e"
            ],
            [
                "98ad2500.aad218"
            ],
            [
                "84beffb1.a58c5"
            ],
            [
                "47037be5.d77d74"
            ],
            [
                "951fb99f.257b58"
            ],
            [
                "b759cafb.3d65c8"
            ],
            [
                "46fc29c1.a4cee8"
            ],
            [
                "78b3f66a.d0cfb8"
            ],
            [
                "f2c3e2ed.80af5"
            ]
        ]
    },
    {
        "id": "4af9aede.c4df5",
        "type": "range",
        "z": "ad059bfc.a2f098",
        "minin": "0",
        "maxin": "10000",
        "minout": "0",
        "maxout": "100",
        "action": "scale",
        "round": false,
        "property": "payload",
        "name": "/100",
        "x": 910,
        "y": 260,
        "wires": [
            [
                "59b9c155.9d75"
            ]
        ]
    },
    {
        "id": "b93b8123.56d33",
        "type": "split",
        "z": "ad059bfc.a2f098",
        "name": "",
        "splt": "\\n",
        "spltType": "str",
        "arraySplt": 1,
        "arraySpltType": "len",
        "stream": false,
        "addname": "",
        "x": 510,
        "y": 280,
        "wires": [
            [
                "624a3ceb.2339b4"
            ]
        ]
    },
    {
        "id": "59b9c155.9d75",
        "type": "ui_numeric",
        "z": "ad059bfc.a2f098",
        "name": "",
        "label": "High Voltage Disconnect",
        "tooltip": "",
        "group": "6940fb1e.3ea9f4",
        "order": 4,
        "width": 0,
        "height": 0,
        "wrap": false,
        "passthru": true,
        "topic": "",
        "topicType": "str",
        "format": "{{value}} V",
        "min": "50",
        "max": "57",
        "step": "0.1",
        "className": "",
        "x": 1090,
        "y": 260,
        "wires": [
            [
                "b87ab902.f64ac8"
            ]
        ]
    },
    {
        "id": "ea98d014.4b279",
        "type": "range",
        "z": "ad059bfc.a2f098",
        "minin": "0",
        "maxin": "10000",
        "minout": "0",
        "maxout": "100",
        "action": "scale",
        "round": false,
        "property": "payload",
        "name": "/100",
        "x": 910,
        "y": 320,
        "wires": [
            [
                "36035f0b.0e2c6"
            ]
        ]
    },
    {
        "id": "36035f0b.0e2c6",
        "type": "ui_numeric",
        "z": "ad059bfc.a2f098",
        "name": "",
        "label": "Charging Limit",
        "tooltip": "",
        "group": "6940fb1e.3ea9f4",
        "order": 5,
        "width": 0,
        "height": 0,
        "wrap": false,
        "passthru": true,
        "topic": "",
        "topicType": "str",
        "format": "{{value}} V",
        "min": "45",
        "max": "57",
        "step": "0.1",
        "className": "",
        "x": 1060,
        "y": 320,
        "wires": [
            [
                "30ece487.bf96ec"
            ]
        ]
    },
    {
        "id": "a91daaeb.6379b8",
        "type": "range",
        "z": "ad059bfc.a2f098",
        "minin": "0",
        "maxin": "10000",
        "minout": "0",
        "maxout": "100",
        "action": "scale",
        "round": false,
        "property": "payload",
        "name": "/100",
        "x": 910,
        "y": 380,
        "wires": [
            [
                "b31dc258.53d27"
            ]
        ]
    },
    {
        "id": "b31dc258.53d27",
        "type": "ui_numeric",
        "z": "ad059bfc.a2f098",
        "name": "",
        "label": "Over Voltage Reconnect ",
        "tooltip": "",
        "group": "6940fb1e.3ea9f4",
        "order": 6,
        "width": 0,
        "height": 0,
        "wrap": false,
        "passthru": true,
        "topic": "",
        "topicType": "str",
        "format": "{{value}} V",
        "min": "45",
        "max": "57",
        "step": "0.1",
        "className": "",
        "x": 1090,
        "y": 380,
        "wires": [
            [
                "d992d6a2.300be8"
            ]
        ]
    },
    {
        "id": "db284982.752fe8",
        "type": "ui_button",
        "z": "ad059bfc.a2f098",
        "name": "",
        "group": "6940fb1e.3ea9f4",
        "order": 1,
        "width": 0,
        "height": 0,
        "passthru": true,
        "label": "Read Values",
        "tooltip": "Click to read currently set values.",
        "color": "",
        "bgcolor": "",
        "className": "",
        "icon": "",
        "payload": "1",
        "payloadType": "num",
        "topic": "",
        "topicType": "str",
        "x": 110,
        "y": 500,
        "wires": [
            [
                "50bc9ad7.7a2d74",
                "b0cf8b86.c1e278"
            ]
        ]
    },
    {
        "id": "c3a4df57.5f1c6",
        "type": "ui_numeric",
        "z": "ad059bfc.a2f098",
        "name": "",
        "label": "Equalization",
        "tooltip": "",
        "group": "6940fb1e.3ea9f4",
        "order": 7,
        "width": 0,
        "height": 0,
        "wrap": false,
        "passthru": true,
        "topic": "",
        "topicType": "str",
        "format": "{{value}} V",
        "min": "45",
        "max": "57",
        "step": "0.1",
        "className": "",
        "x": 1050,
        "y": 440,
        "wires": [
            [
                "d7fccec4.78835"
            ]
        ]
    },
    {
        "id": "98ad2500.aad218",
        "type": "range",
        "z": "ad059bfc.a2f098",
        "minin": "0",
        "maxin": "10000",
        "minout": "0",
        "maxout": "100",
        "action": "scale",
        "round": false,
        "property": "payload",
        "name": "/100",
        "x": 910,
        "y": 500,
        "wires": [
            [
                "c486d13f.5986c"
            ]
        ]
    },
    {
        "id": "c486d13f.5986c",
        "type": "ui_numeric",
        "z": "ad059bfc.a2f098",
        "name": "",
        "label": "Boost",
        "tooltip": "",
        "group": "6940fb1e.3ea9f4",
        "order": 8,
        "width": 0,
        "height": 0,
        "wrap": false,
        "passthru": true,
        "topic": "",
        "topicType": "str",
        "format": "{{value}} V",
        "min": "45",
        "max": "57",
        "step": "0.1",
        "className": "",
        "x": 1030,
        "y": 500,
        "wires": [
            [
                "2703799d.d37ae6"
            ]
        ]
    },
    {
        "id": "84beffb1.a58c5",
        "type": "range",
        "z": "ad059bfc.a2f098",
        "minin": "0",
        "maxin": "10000",
        "minout": "0",
        "maxout": "100",
        "action": "scale",
        "round": false,
        "property": "payload",
        "name": "/100",
        "x": 910,
        "y": 560,
        "wires": [
            [
                "31329ee2.e3ee02"
            ]
        ]
    },
    {
        "id": "31329ee2.e3ee02",
        "type": "ui_numeric",
        "z": "ad059bfc.a2f098",
        "name": "",
        "label": "Float",
        "tooltip": "",
        "group": "6940fb1e.3ea9f4",
        "order": 9,
        "width": 0,
        "height": 0,
        "wrap": false,
        "passthru": true,
        "topic": "",
        "topicType": "str",
        "format": "{{value}} V",
        "min": "45",
        "max": "57",
        "step": "0.1",
        "className": "",
        "x": 1030,
        "y": 560,
        "wires": [
            [
                "de7c4d66.44c46"
            ]
        ]
    },
    {
        "id": "47037be5.d77d74",
        "type": "range",
        "z": "ad059bfc.a2f098",
        "minin": "0",
        "maxin": "10000",
        "minout": "0",
        "maxout": "100",
        "action": "scale",
        "round": false,
        "property": "payload",
        "name": "/100",
        "x": 910,
        "y": 620,
        "wires": [
            [
                "1d41a2d7.c3b80d"
            ]
        ]
    },
    {
        "id": "1d41a2d7.c3b80d",
        "type": "ui_numeric",
        "z": "ad059bfc.a2f098",
        "name": "",
        "label": "Boost Reconnect",
        "tooltip": "",
        "group": "6940fb1e.3ea9f4",
        "order": 10,
        "width": 0,
        "height": 0,
        "wrap": false,
        "passthru": true,
        "topic": "",
        "topicType": "str",
        "format": "{{value}} V",
        "min": "45",
        "max": "57",
        "step": "0.1",
        "className": "",
        "x": 1070,
        "y": 620,
        "wires": [
            [
                "ae3e4b2d.b75008"
            ]
        ]
    },
    {
        "id": "951fb99f.257b58",
        "type": "range",
        "z": "ad059bfc.a2f098",
        "minin": "0",
        "maxin": "10000",
        "minout": "0",
        "maxout": "100",
        "action": "scale",
        "round": false,
        "property": "payload",
        "name": "/100",
        "x": 910,
        "y": 680,
        "wires": [
            [
                "5f3c49af.64f188"
            ]
        ]
    },
    {
        "id": "5f3c49af.64f188",
        "type": "ui_numeric",
        "z": "ad059bfc.a2f098",
        "name": "",
        "label": "Low Voltage Reconnect",
        "tooltip": "",
        "group": "6940fb1e.3ea9f4",
        "order": 11,
        "width": 0,
        "height": 0,
        "wrap": false,
        "passthru": true,
        "topic": "",
        "topicType": "str",
        "format": "{{value}} V",
        "min": "45",
        "max": "57",
        "step": "0.1",
        "className": "",
        "x": 1090,
        "y": 680,
        "wires": [
            [
                "610e8023.386e4"
            ]
        ]
    },
    {
        "id": "b759cafb.3d65c8",
        "type": "range",
        "z": "ad059bfc.a2f098",
        "minin": "0",
        "maxin": "10000",
        "minout": "0",
        "maxout": "100",
        "action": "scale",
        "round": false,
        "property": "payload",
        "name": "/100",
        "x": 910,
        "y": 740,
        "wires": [
            [
                "11d055f4.59751a"
            ]
        ]
    },
    {
        "id": "11d055f4.59751a",
        "type": "ui_numeric",
        "z": "ad059bfc.a2f098",
        "name": "",
        "label": "Under Voltage Recover",
        "tooltip": "",
        "group": "6940fb1e.3ea9f4",
        "order": 12,
        "width": 0,
        "height": 0,
        "wrap": false,
        "passthru": true,
        "topic": "",
        "topicType": "str",
        "format": "{{value}} V",
        "min": "45",
        "max": "57",
        "step": "0.1",
        "className": "",
        "x": 1090,
        "y": 740,
        "wires": [
            [
                "d35b2639.03ba38"
            ]
        ]
    },
    {
        "id": "46fc29c1.a4cee8",
        "type": "range",
        "z": "ad059bfc.a2f098",
        "minin": "0",
        "maxin": "10000",
        "minout": "0",
        "maxout": "100",
        "action": "scale",
        "round": false,
        "property": "payload",
        "name": "/100",
        "x": 910,
        "y": 800,
        "wires": [
            [
                "b6b38b9.8372d78"
            ]
        ]
    },
    {
        "id": "b6b38b9.8372d78",
        "type": "ui_numeric",
        "z": "ad059bfc.a2f098",
        "name": "",
        "label": "Under Voltage Warning",
        "tooltip": "",
        "group": "6940fb1e.3ea9f4",
        "order": 13,
        "width": 0,
        "height": 0,
        "wrap": false,
        "passthru": true,
        "topic": "",
        "topicType": "str",
        "format": "{{value}} V",
        "min": "45",
        "max": "57",
        "step": "0.1",
        "className": "",
        "x": 1090,
        "y": 800,
        "wires": [
            [
                "b537ee0f.0eea2"
            ]
        ]
    },
    {
        "id": "78b3f66a.d0cfb8",
        "type": "range",
        "z": "ad059bfc.a2f098",
        "minin": "0",
        "maxin": "10000",
        "minout": "0",
        "maxout": "100",
        "action": "scale",
        "round": false,
        "property": "payload",
        "name": "/100",
        "x": 910,
        "y": 860,
        "wires": [
            [
                "fcc9ef1e.25668"
            ]
        ]
    },
    {
        "id": "fcc9ef1e.25668",
        "type": "ui_numeric",
        "z": "ad059bfc.a2f098",
        "name": "",
        "label": "Low Voltage Disconnect",
        "tooltip": "",
        "group": "6940fb1e.3ea9f4",
        "order": 14,
        "width": 0,
        "height": 0,
        "wrap": false,
        "passthru": true,
        "topic": "",
        "topicType": "str",
        "format": "{{value}} V",
        "min": "45",
        "max": "57",
        "step": "0.1",
        "className": "",
        "x": 1090,
        "y": 860,
        "wires": [
            [
                "6ab4d61a.45a588"
            ]
        ]
    },
    {
        "id": "f2c3e2ed.80af5",
        "type": "range",
        "z": "ad059bfc.a2f098",
        "minin": "0",
        "maxin": "10000",
        "minout": "0",
        "maxout": "100",
        "action": "scale",
        "round": false,
        "property": "payload",
        "name": "/100",
        "x": 910,
        "y": 920,
        "wires": [
            [
                "cbee258b.fc7058"
            ]
        ]
    },
    {
        "id": "cbee258b.fc7058",
        "type": "ui_numeric",
        "z": "ad059bfc.a2f098",
        "name": "",
        "label": "Discharge Limit",
        "tooltip": "",
        "group": "6940fb1e.3ea9f4",
        "order": 15,
        "width": 0,
        "height": 0,
        "wrap": false,
        "passthru": true,
        "topic": "",
        "topicType": "str",
        "format": "{{value}} V",
        "min": "45",
        "max": "57",
        "step": "0.1",
        "className": "",
        "x": 1060,
        "y": 920,
        "wires": [
            [
                "c96c422e.14bf8"
            ]
        ]
    },
    {
        "id": "b87ab902.f64ac8",
        "type": "range",
        "z": "ad059bfc.a2f098",
        "minin": "0",
        "maxin": "100",
        "minout": "0",
        "maxout": "10000",
        "action": "scale",
        "round": true,
        "property": "payload",
        "name": "*100",
        "x": 1270,
        "y": 260,
        "wires": [
            [
                "db356677.d183f8"
            ]
        ]
    },
    {
        "id": "30ece487.bf96ec",
        "type": "range",
        "z": "ad059bfc.a2f098",
        "minin": "0",
        "maxin": "100",
        "minout": "0",
        "maxout": "10000",
        "action": "scale",
        "round": true,
        "property": "payload",
        "name": "*100",
        "x": 1270,
        "y": 320,
        "wires": [
            [
                "839a3e54.6c6eb"
            ]
        ]
    },
    {
        "id": "d992d6a2.300be8",
        "type": "range",
        "z": "ad059bfc.a2f098",
        "minin": "0",
        "maxin": "100",
        "minout": "0",
        "maxout": "10000",
        "action": "scale",
        "round": true,
        "property": "payload",
        "name": "*100",
        "x": 1270,
        "y": 380,
        "wires": [
            [
                "91287f93.7cef"
            ]
        ]
    },
    {
        "id": "2703799d.d37ae6",
        "type": "range",
        "z": "ad059bfc.a2f098",
        "minin": "0",
        "maxin": "100",
        "minout": "0",
        "maxout": "10000",
        "action": "scale",
        "round": true,
        "property": "payload",
        "name": "*100",
        "x": 1270,
        "y": 500,
        "wires": [
            [
                "bb2e2fe2.6ff76"
            ]
        ]
    },
    {
        "id": "de7c4d66.44c46",
        "type": "range",
        "z": "ad059bfc.a2f098",
        "minin": "0",
        "maxin": "100",
        "minout": "0",
        "maxout": "10000",
        "action": "scale",
        "round": true,
        "property": "payload",
        "name": "*100",
        "x": 1270,
        "y": 560,
        "wires": [
            [
                "669d100d.db338"
            ]
        ]
    },
    {
        "id": "ae3e4b2d.b75008",
        "type": "range",
        "z": "ad059bfc.a2f098",
        "minin": "0",
        "maxin": "100",
        "minout": "0",
        "maxout": "10000",
        "action": "scale",
        "round": true,
        "property": "payload",
        "name": "*100",
        "x": 1270,
        "y": 620,
        "wires": [
            [
                "e4c00273.01e6b"
            ]
        ]
    },
    {
        "id": "610e8023.386e4",
        "type": "range",
        "z": "ad059bfc.a2f098",
        "minin": "0",
        "maxin": "100",
        "minout": "0",
        "maxout": "10000",
        "action": "scale",
        "round": true,
        "property": "payload",
        "name": "*100",
        "x": 1270,
        "y": 680,
        "wires": [
            [
                "9e7af238.b0c7b"
            ]
        ]
    },
    {
        "id": "d35b2639.03ba38",
        "type": "range",
        "z": "ad059bfc.a2f098",
        "minin": "0",
        "maxin": "100",
        "minout": "0",
        "maxout": "10000",
        "action": "scale",
        "round": true,
        "property": "payload",
        "name": "*100",
        "x": 1270,
        "y": 740,
        "wires": [
            [
                "cdd7ed6f.0c68c"
            ]
        ]
    },
    {
        "id": "b537ee0f.0eea2",
        "type": "range",
        "z": "ad059bfc.a2f098",
        "minin": "0",
        "maxin": "100",
        "minout": "0",
        "maxout": "10000",
        "action": "scale",
        "round": true,
        "property": "payload",
        "name": "*100",
        "x": 1270,
        "y": 800,
        "wires": [
            [
                "34f466cf.7dac8a"
            ]
        ]
    },
    {
        "id": "6ab4d61a.45a588",
        "type": "range",
        "z": "ad059bfc.a2f098",
        "minin": "0",
        "maxin": "100",
        "minout": "0",
        "maxout": "10000",
        "action": "scale",
        "round": true,
        "property": "payload",
        "name": "*100",
        "x": 1270,
        "y": 860,
        "wires": [
            [
                "8ff244ee.137558"
            ]
        ]
    },
    {
        "id": "c96c422e.14bf8",
        "type": "range",
        "z": "ad059bfc.a2f098",
        "minin": "0",
        "maxin": "100",
        "minout": "0",
        "maxout": "10000",
        "action": "scale",
        "round": true,
        "property": "payload",
        "name": "*100",
        "x": 1270,
        "y": 920,
        "wires": [
            [
                "4d70da3d.a0dce4"
            ]
        ]
    },
    {
        "id": "54438fef.e2507",
        "type": "ui_dropdown",
        "z": "ad059bfc.a2f098",
        "name": "",
        "label": "Battery Type",
        "tooltip": "Sealed, Gel and flooded have standard profiles which you can see by clicking Read Values.  To change these values, set this option to User.",
        "place": "",
        "group": "6940fb1e.3ea9f4",
        "order": 2,
        "width": 0,
        "height": 0,
        "passthru": true,
        "multiple": false,
        "options": [
            {
                "label": "User",
                "value": "0",
                "type": "str"
            },
            {
                "label": "Sealed",
                "value": "1",
                "type": "str"
            },
            {
                "label": "Gel",
                "value": "2",
                "type": "str"
            },
            {
                "label": "Flooded",
                "value": "3",
                "type": "str"
            }
        ],
        "payload": "",
        "topic": "",
        "topicType": "str",
        "className": "",
        "x": 1050,
        "y": 80,
        "wires": [
            [
                "9805f446.6f1188"
            ]
        ]
    },
    {
        "id": "36997d58.3762a2",
        "type": "ui_numeric",
        "z": "ad059bfc.a2f098",
        "name": "",
        "label": "Battery Capacity",
        "tooltip": "Battery Capacity in amp hours",
        "group": "6940fb1e.3ea9f4",
        "order": 3,
        "width": 0,
        "height": 0,
        "wrap": false,
        "passthru": true,
        "topic": "",
        "topicType": "str",
        "format": "{{value}} Ah",
        "min": 0,
        "max": "10000",
        "step": "10",
        "className": "",
        "x": 1060,
        "y": 140,
        "wires": [
            [
                "a8174ccc.efd19"
            ]
        ]
    },
    {
        "id": "4163ae48.31778",
        "type": "change",
        "z": "ad059bfc.a2f098",
        "name": "Set flow.9000",
        "rules": [
            {
                "t": "set",
                "p": "9000",
                "pt": "flow",
                "to": "payload",
                "tot": "msg"
            }
        ],
        "action": "",
        "property": "",
        "from": "",
        "to": "",
        "reg": false,
        "x": 1420,
        "y": 80,
        "wires": [
            []
        ]
    },
    {
        "id": "8f3f71f1.fbf2a",
        "type": "ui_button",
        "z": "ad059bfc.a2f098",
        "name": "",
        "group": "6940fb1e.3ea9f4",
        "order": 18,
        "width": 0,
        "height": 0,
        "passthru": true,
        "label": "Write Values",
        "tooltip": "As long as all the options are valid, your settings will be saved in the charge controller",
        "color": "",
        "bgcolor": "",
        "className": "",
        "icon": "",
        "payload": "",
        "payloadType": "str",
        "topic": "",
        "topicType": "str",
        "x": 270,
        "y": 1100,
        "wires": [
            [
                "760dcaa2.d5ba74",
                "dccdb88e.ea0a18"
            ]
        ]
    },
    {
        "id": "a8174ccc.efd19",
        "type": "change",
        "z": "ad059bfc.a2f098",
        "name": "Set flow.9001",
        "rules": [
            {
                "t": "set",
                "p": "9001",
                "pt": "flow",
                "to": "payload",
                "tot": "msg"
            }
        ],
        "action": "",
        "property": "",
        "from": "",
        "to": "",
        "reg": false,
        "x": 1420,
        "y": 140,
        "wires": [
            []
        ]
    },
    {
        "id": "760dcaa2.d5ba74",
        "type": "function",
        "z": "ad059bfc.a2f098",
        "name": "Build Array 0x9000 [15]",
        "func": "var EP9000=flow.get('9000') || 0;\nvar EP9001=flow.get('9001') || 0;\nvar EP9002=flow.get('9002') || 0;\nvar EP9003=flow.get('9003') || 0;\nvar EP9004=flow.get('9004') || 0;\nvar EP9005=flow.get('9005') || 0;\nvar EP9006=flow.get('9006') || 0;\nvar EP9007=flow.get('9007') || 0;\nvar EP9008=flow.get('9008') || 0;\nvar EP9009=flow.get('9009') || 0;\nvar EP900A=flow.get('900A') || 0;\nvar EP900B=flow.get('900B') || 0;\nvar EP900C=flow.get('900C') || 0;\nvar EP900D=flow.get('900D') || 0;\nvar EP900E=flow.get('900E') || 0;\n\nvar list = [ EP9000, EP9001, EP9002, EP9003, EP9004, EP9005, EP9006, EP9007, EP9008, EP9009, EP900A, EP900B, EP900C, EP900D, EP900E];\nvar msg1 = {payload:list};\n\nreturn msg1",
        "outputs": 1,
        "noerr": 0,
        "initialize": "",
        "finalize": "",
        "libs": [],
        "x": 770,
        "y": 1100,
        "wires": [
            [
                "301ab595.3e314a"
            ]
        ]
    },
    {
        "id": "250a1ff6.fce2f",
        "type": "inject",
        "z": "ad059bfc.a2f098",
        "name": "2",
        "props": [
            {
                "p": "payload"
            },
            {
                "p": "topic",
                "vt": "str"
            }
        ],
        "repeat": "",
        "crontab": "",
        "once": false,
        "onceDelay": 0.1,
        "topic": "",
        "payload": "2",
        "payloadType": "num",
        "x": 90,
        "y": 1100,
        "wires": [
            [
                "8f3f71f1.fbf2a"
            ]
        ]
    },
    {
        "id": "4d70da3d.a0dce4",
        "type": "change",
        "z": "ad059bfc.a2f098",
        "name": "Set flow.900E",
        "rules": [
            {
                "t": "set",
                "p": "900E",
                "pt": "flow",
                "to": "payload",
                "tot": "msg"
            }
        ],
        "action": "",
        "property": "",
        "from": "",
        "to": "",
        "reg": false,
        "x": 1420,
        "y": 920,
        "wires": [
            []
        ]
    },
    {
        "id": "91b443f4.0bafe",
        "type": "inject",
        "z": "ad059bfc.a2f098",
        "name": "Fake Read Values",
        "props": [
            {
                "p": "payload"
            },
            {
                "p": "topic",
                "vt": "str"
            }
        ],
        "repeat": "",
        "crontab": "",
        "once": false,
        "onceDelay": 0.1,
        "topic": "",
        "payload": "[0,172,300,1600,1450,1500,1400,1390,1380,1320,1260,1220,1200,1150,1060]",
        "payloadType": "json",
        "x": 270,
        "y": 660,
        "wires": [
            [
                "b93b8123.56d33"
            ]
        ]
    },
    {
        "id": "7157095b.b6a698",
        "type": "change",
        "z": "ad059bfc.a2f098",
        "name": "Set flow.9002",
        "rules": [
            {
                "t": "set",
                "p": "9002",
                "pt": "flow",
                "to": "payload",
                "tot": "msg"
            }
        ],
        "action": "",
        "property": "",
        "from": "",
        "to": "",
        "reg": false,
        "x": 1420,
        "y": 200,
        "wires": [
            []
        ]
    },
    {
        "id": "db356677.d183f8",
        "type": "change",
        "z": "ad059bfc.a2f098",
        "name": "Set flow.9003",
        "rules": [
            {
                "t": "set",
                "p": "9003",
                "pt": "flow",
                "to": "payload",
                "tot": "msg"
            }
        ],
        "action": "",
        "property": "",
        "from": "",
        "to": "",
        "reg": false,
        "x": 1420,
        "y": 260,
        "wires": [
            []
        ]
    },
    {
        "id": "839a3e54.6c6eb",
        "type": "change",
        "z": "ad059bfc.a2f098",
        "name": "Set flow.9004",
        "rules": [
            {
                "t": "set",
                "p": "9004",
                "pt": "flow",
                "to": "payload",
                "tot": "msg"
            }
        ],
        "action": "",
        "property": "",
        "from": "",
        "to": "",
        "reg": false,
        "x": 1420,
        "y": 320,
        "wires": [
            []
        ]
    },
    {
        "id": "91287f93.7cef",
        "type": "change",
        "z": "ad059bfc.a2f098",
        "name": "Set flow.9005",
        "rules": [
            {
                "t": "set",
                "p": "9005",
                "pt": "flow",
                "to": "payload",
                "tot": "msg"
            }
        ],
        "action": "",
        "property": "",
        "from": "",
        "to": "",
        "reg": false,
        "x": 1420,
        "y": 380,
        "wires": [
            []
        ]
    },
    {
        "id": "db13e793.684a68",
        "type": "change",
        "z": "ad059bfc.a2f098",
        "name": "Set flow.9006",
        "rules": [
            {
                "t": "set",
                "p": "9006",
                "pt": "flow",
                "to": "payload",
                "tot": "msg"
            }
        ],
        "action": "",
        "property": "",
        "from": "",
        "to": "",
        "reg": false,
        "x": 1420,
        "y": 440,
        "wires": [
            []
        ]
    },
    {
        "id": "bb2e2fe2.6ff76",
        "type": "change",
        "z": "ad059bfc.a2f098",
        "name": "Set flow.9007",
        "rules": [
            {
                "t": "set",
                "p": "9007",
                "pt": "flow",
                "to": "payload",
                "tot": "msg"
            }
        ],
        "action": "",
        "property": "",
        "from": "",
        "to": "",
        "reg": false,
        "x": 1420,
        "y": 500,
        "wires": [
            []
        ]
    },
    {
        "id": "669d100d.db338",
        "type": "change",
        "z": "ad059bfc.a2f098",
        "name": "Set flow.9008",
        "rules": [
            {
                "t": "set",
                "p": "9008",
                "pt": "flow",
                "to": "payload",
                "tot": "msg"
            }
        ],
        "action": "",
        "property": "",
        "from": "",
        "to": "",
        "reg": false,
        "x": 1420,
        "y": 560,
        "wires": [
            []
        ]
    },
    {
        "id": "e4c00273.01e6b",
        "type": "change",
        "z": "ad059bfc.a2f098",
        "name": "Set flow.9009",
        "rules": [
            {
                "t": "set",
                "p": "9009",
                "pt": "flow",
                "to": "payload",
                "tot": "msg"
            }
        ],
        "action": "",
        "property": "",
        "from": "",
        "to": "",
        "reg": false,
        "x": 1420,
        "y": 620,
        "wires": [
            []
        ]
    },
    {
        "id": "9e7af238.b0c7b",
        "type": "change",
        "z": "ad059bfc.a2f098",
        "name": "Set flow.900A",
        "rules": [
            {
                "t": "set",
                "p": "900A",
                "pt": "flow",
                "to": "payload",
                "tot": "msg"
            }
        ],
        "action": "",
        "property": "",
        "from": "",
        "to": "",
        "reg": false,
        "x": 1420,
        "y": 680,
        "wires": [
            []
        ]
    },
    {
        "id": "cdd7ed6f.0c68c",
        "type": "change",
        "z": "ad059bfc.a2f098",
        "name": "Set flow.900B",
        "rules": [
            {
                "t": "set",
                "p": "900B",
                "pt": "flow",
                "to": "payload",
                "tot": "msg"
            }
        ],
        "action": "",
        "property": "",
        "from": "",
        "to": "",
        "reg": false,
        "x": 1420,
        "y": 740,
        "wires": [
            []
        ]
    },
    {
        "id": "34f466cf.7dac8a",
        "type": "change",
        "z": "ad059bfc.a2f098",
        "name": "Set flow.900C",
        "rules": [
            {
                "t": "set",
                "p": "900C",
                "pt": "flow",
                "to": "payload",
                "tot": "msg"
            }
        ],
        "action": "",
        "property": "",
        "from": "",
        "to": "",
        "reg": false,
        "x": 1420,
        "y": 800,
        "wires": [
            []
        ]
    },
    {
        "id": "8ff244ee.137558",
        "type": "change",
        "z": "ad059bfc.a2f098",
        "name": "Set flow.900D",
        "rules": [
            {
                "t": "set",
                "p": "900D",
                "pt": "flow",
                "to": "payload",
                "tot": "msg"
            }
        ],
        "action": "",
        "property": "",
        "from": "",
        "to": "",
        "reg": false,
        "x": 1420,
        "y": 860,
        "wires": [
            []
        ]
    },
    {
        "id": "9805f446.6f1188",
        "type": "change",
        "z": "ad059bfc.a2f098",
        "name": "Battery Type",
        "rules": [
            {
                "t": "set",
                "p": "topic",
                "pt": "msg",
                "to": "9000",
                "tot": "str"
            },
            {
                "t": "change",
                "p": "payload",
                "pt": "msg",
                "from": "User",
                "fromt": "str",
                "to": "0",
                "tot": "str"
            },
            {
                "t": "change",
                "p": "payload",
                "pt": "msg",
                "from": "Sealed",
                "fromt": "str",
                "to": "1",
                "tot": "num"
            },
            {
                "t": "change",
                "p": "payload",
                "pt": "msg",
                "from": "Gel",
                "fromt": "str",
                "to": "2",
                "tot": "num"
            },
            {
                "t": "change",
                "p": "payload",
                "pt": "msg",
                "from": "Flooded",
                "fromt": "str",
                "to": "3",
                "tot": "num"
            }
        ],
        "action": "",
        "property": "",
        "from": "",
        "to": "",
        "reg": false,
        "x": 1230,
        "y": 80,
        "wires": [
            [
                "4163ae48.31778"
            ]
        ]
    },
    {
        "id": "2dd12075.1f64e",
        "type": "range",
        "z": "ad059bfc.a2f098",
        "minin": "0",
        "maxin": "10000",
        "minout": "0",
        "maxout": "100",
        "action": "scale",
        "round": false,
        "property": "payload",
        "name": "/100",
        "x": 910,
        "y": 440,
        "wires": [
            [
                "c3a4df57.5f1c6"
            ]
        ]
    },
    {
        "id": "d7fccec4.78835",
        "type": "range",
        "z": "ad059bfc.a2f098",
        "minin": "0",
        "maxin": "100",
        "minout": "0",
        "maxout": "10000",
        "action": "scale",
        "round": true,
        "property": "payload",
        "name": "*100",
        "x": 1270,
        "y": 440,
        "wires": [
            [
                "db13e793.684a68"
            ]
        ]
    },
    {
        "id": "301ab595.3e314a",
        "type": "modbus-write",
        "z": "ad059bfc.a2f098",
        "name": "",
        "showStatusActivities": false,
        "showErrors": false,
        "showWarnings": true,
        "unitid": "1",
        "dataType": "MHoldingRegisters",
        "adr": "0x9000",
        "quantity": "15",
        "server": "b7312c82.e12fe",
        "emptyMsgOnFail": false,
        "keepMsgProperties": false,
        "delayOnStart": false,
        "startDelayTime": "",
        "x": 980,
        "y": 1100,
        "wires": [
            [],
            []
        ]
    },
    {
        "id": "68e53c3.ca287c4",
        "type": "function",
        "z": "ad059bfc.a2f098",
        "name": "Build Array 0x906B [2]",
        "func": "var EP906B=flow.get('906B') || 0;\nvar EP906C=flow.get('906C') || 0;\n\nvar list = [ EP906B, EP906C];\nvar msg1 = {payload:list};\n\nreturn msg1",
        "outputs": 1,
        "noerr": 0,
        "x": 760,
        "y": 1160,
        "wires": [
            [
                "9d20cd57.cb3fc"
            ]
        ]
    },
    {
        "id": "9d20cd57.cb3fc",
        "type": "modbus-write",
        "z": "ad059bfc.a2f098",
        "name": "",
        "showStatusActivities": false,
        "showErrors": false,
        "unitid": "1",
        "dataType": "MHoldingRegisters",
        "adr": "0x906B",
        "quantity": "2",
        "server": "b7312c82.e12fe",
        "x": 980,
        "y": 1160,
        "wires": [
            [],
            []
        ]
    },
    {
        "id": "dccdb88e.ea0a18",
        "type": "delay",
        "z": "ad059bfc.a2f098",
        "name": "",
        "pauseType": "delay",
        "timeout": "1",
        "timeoutUnits": "seconds",
        "rate": "1",
        "nbRateUnits": "1",
        "rateUnits": "second",
        "randomFirst": "1",
        "randomLast": "5",
        "randomUnits": "seconds",
        "drop": false,
        "allowrate": false,
        "outputs": 1,
        "x": 520,
        "y": 1160,
        "wires": [
            [
                "68e53c3.ca287c4"
            ]
        ]
    },
    {
        "id": "935a3fa5.db7b3",
        "type": "modbus-flex-getter",
        "z": "ad059bfc.a2f098",
        "name": "Modbus Get",
        "showStatusActivities": false,
        "showErrors": false,
        "logIOActivities": false,
        "server": "b7312c82.e12fe",
        "useIOFile": false,
        "ioFile": "",
        "useIOForPayload": false,
        "x": 130,
        "y": 900,
        "wires": [
            [
                "b892baac.076cb8"
            ],
            [
                "9a3c818.0d3a78"
            ]
        ]
    },
    {
        "id": "e948d74d.d5a638",
        "type": "function",
        "z": "ad059bfc.a2f098",
        "name": "FC3 0x906B [2]",
        "func": "msg.payload = { \n    'fc': 3, \n    'unitid': 1, \n    'address': 0x906B, \n    'quantity': 2\n}\nreturn msg;",
        "outputs": 1,
        "noerr": 0,
        "initialize": "",
        "finalize": "",
        "libs": [],
        "x": 120,
        "y": 840,
        "wires": [
            [
                "935a3fa5.db7b3"
            ]
        ]
    },
    {
        "id": "405e4fd.2a5c5b",
        "type": "switch",
        "z": "ad059bfc.a2f098",
        "name": "",
        "property": "parts.index",
        "propertyType": "msg",
        "rules": [
            {
                "t": "eq",
                "v": "0",
                "vt": "num"
            },
            {
                "t": "eq",
                "v": "1",
                "vt": "str"
            }
        ],
        "checkall": "false",
        "repair": false,
        "outputs": 2,
        "x": 750,
        "y": 980,
        "wires": [
            [
                "4b61571.3d746a8"
            ],
            [
                "659febb4.109504"
            ]
        ]
    },
    {
        "id": "b892baac.076cb8",
        "type": "split",
        "z": "ad059bfc.a2f098",
        "name": "",
        "splt": "\\n",
        "spltType": "str",
        "arraySplt": 1,
        "arraySpltType": "len",
        "stream": false,
        "addname": "",
        "x": 630,
        "y": 980,
        "wires": [
            [
                "405e4fd.2a5c5b"
            ]
        ]
    },
    {
        "id": "4b61571.3d746a8",
        "type": "ui_numeric",
        "z": "ad059bfc.a2f098",
        "name": "",
        "label": "Equalization Duration",
        "tooltip": "",
        "group": "6940fb1e.3ea9f4",
        "order": 16,
        "width": 0,
        "height": 0,
        "wrap": false,
        "passthru": true,
        "topic": "",
        "topicType": "str",
        "format": "{{value}} m",
        "min": "10",
        "max": "180",
        "step": "10",
        "className": "",
        "x": 1080,
        "y": 980,
        "wires": [
            [
                "b7086fac.8c3b5"
            ]
        ]
    },
    {
        "id": "659febb4.109504",
        "type": "ui_numeric",
        "z": "ad059bfc.a2f098",
        "name": "",
        "label": "Boost Duration",
        "tooltip": "",
        "group": "6940fb1e.3ea9f4",
        "order": 17,
        "width": 0,
        "height": 0,
        "wrap": false,
        "passthru": true,
        "topic": "",
        "topicType": "str",
        "format": "{{value}} m",
        "min": "10",
        "max": "1200",
        "step": "10",
        "className": "",
        "x": 1060,
        "y": 1040,
        "wires": [
            [
                "787d8556.5c52cc"
            ]
        ]
    },
    {
        "id": "b7086fac.8c3b5",
        "type": "change",
        "z": "ad059bfc.a2f098",
        "name": "Set flow.906B",
        "rules": [
            {
                "t": "set",
                "p": "906B",
                "pt": "flow",
                "to": "payload",
                "tot": "msg"
            }
        ],
        "action": "",
        "property": "",
        "from": "",
        "to": "",
        "reg": false,
        "x": 1420,
        "y": 980,
        "wires": [
            []
        ]
    },
    {
        "id": "787d8556.5c52cc",
        "type": "change",
        "z": "ad059bfc.a2f098",
        "name": "Set flow.906C",
        "rules": [
            {
                "t": "set",
                "p": "906C",
                "pt": "flow",
                "to": "payload",
                "tot": "msg"
            }
        ],
        "action": "",
        "property": "",
        "from": "",
        "to": "",
        "reg": false,
        "x": 1420,
        "y": 1040,
        "wires": [
            []
        ]
    },
    {
        "id": "7a55236a.c7073c",
        "type": "inject",
        "z": "ad059bfc.a2f098",
        "name": "",
        "props": [
            {
                "p": "payload",
                "v": "1",
                "vt": "num"
            },
            {
                "p": "topic",
                "v": "",
                "vt": "string"
            }
        ],
        "repeat": "",
        "crontab": "",
        "once": false,
        "onceDelay": 0.1,
        "topic": "",
        "payload": "1",
        "payloadType": "num",
        "x": 90,
        "y": 440,
        "wires": [
            [
                "db284982.752fe8"
            ]
        ]
    },
    {
        "id": "9a3c818.0d3a78",
        "type": "modbus-response",
        "z": "ad059bfc.a2f098",
        "name": "0x906B Response",
        "registerShowMax": 20,
        "x": 210,
        "y": 980,
        "wires": []
    },
    {
        "id": "b0cf8b86.c1e278",
        "type": "delay",
        "z": "ad059bfc.a2f098",
        "name": "",
        "pauseType": "delay",
        "timeout": "1",
        "timeoutUnits": "seconds",
        "rate": "1",
        "nbRateUnits": "1",
        "rateUnits": "second",
        "randomFirst": "1",
        "randomLast": "5",
        "randomUnits": "seconds",
        "drop": false,
        "outputs": 1,
        "x": 100,
        "y": 780,
        "wires": [
            [
                "e948d74d.d5a638"
            ]
        ]
    },
    {
        "id": "b7312c82.e12fe",
        "type": "modbus-client",
        "name": "RS 485 Server",
        "clienttype": "tcp",
        "bufferCommands": true,
        "stateLogEnabled": true,
        "queueLogEnabled": true,
        "failureLogEnabled": true,
        "tcpHost": "192.168.0.51",
        "tcpPort": "8888",
        "tcpType": "TCP-RTU-BUFFERED",
        "serialPort": "/home/pi/ttyV0",
        "serialType": "RTU-BUFFERD",
        "serialBaudrate": "115200",
        "serialDatabits": "8",
        "serialStopbits": "1",
        "serialParity": "none",
        "serialConnectionDelay": "100",
        "serialAsciiResponseStartDelimiter": "",
        "unit_id": 1,
        "commandDelay": 100,
        "clientTimeout": 2000,
        "reconnectOnTimeout": true,
        "reconnectTimeout": 2000,
        "parallelUnitIdsAllowed": false
    },
    {
        "id": "6940fb1e.3ea9f4",
        "type": "ui_group",
        "name": "Settings",
        "tab": "6d3a1d1a.0ff764",
        "order": 6,
        "disp": true,
        "width": 6,
        "collapse": true
    },
    {
        "id": "6d3a1d1a.0ff764",
        "type": "ui_tab",
        "name": "EPEver Dashboard",
        "icon": "dashboard",
        "order": 2,
        "disabled": false,
        "hidden": false
    }
]